{
    "fluentMethods": true,
    "relationships": [
        {
            "relationshipType": "one-to-many",
            "relationshipName": "id",
            "otherEntityName": "studentCourse",
            "otherEntityRelationshipName": "course"
        },
        {
            "relationshipName": "lecturer",
            "otherEntityName": "lecturer",
            "relationshipType": "many-to-one",
            "otherEntityField": "id"
        }
    ],
    "fields": [
        {
            "fieldName": "code",
            "fieldType": "String"
        },
        {
            "fieldName": "description",
            "fieldType": "String"
        },
        {
            "fieldName": "duration",
            "fieldType": "Integer"
        },
        {
            "fieldName": "price",
            "javadoc": "ricavata da endDate - startDate",
            "fieldType": "Double"
        },
        {
            "fieldName": "intensive",
            "javadoc": "prezzo per il corso",
            "fieldType": "Boolean"
        },
        {
            "fieldName": "marcoPolo",
            "fieldType": "Boolean"
        },
        {
            "fieldName": "turandot",
            "fieldType": "Boolean"
        },
        {
            "fieldName": "level",
            "fieldType": "CourseLevel",
            "fieldValues": "A1,A2,B1,B2,C1,C2,SPE,BA,IN"
        },
        {
            "fieldName": "creationDate",
            "fieldType": "LocalDate"
        },
        {
            "fieldName": "maxStudNum",
            "javadoc": "MMM-AAAA Giorno della creazione",
            "fieldType": "Integer"
        },
        {
            "fieldName": "startDate",
            "javadoc": "numero massimo di studenti che possono essere iscritti",
            "fieldType": "LocalDate"
        },
        {
            "fieldName": "endDate",
            "javadoc": "giorno effettivo di inizio del corso che non puo essere un festivo",
            "fieldType": "LocalDate"
        }
    ],
    "changelogDate": "20170202090518",
    "javadoc": "The Course entity.",
    "entityTableName": "course",
    "dto": "no",
    "pagination": "no",
    "service": "no"
}