{
    "fluentMethods": true,
    "relationships": [],
    "fields": [
        {
            "fieldName": "esito",
            "fieldType": "String",
            "fieldValidateRules": [
                "required"
            ]
        },
        {
            "fieldName": "codiceErrore",
            "fieldType": "String"
        },
        {
            "fieldName": "descrizione",
            "fieldType": "String"
        },
        {
            "fieldName": "identificativo_univoco_versamento",
            "fieldType": "String",
            "fieldValidateRules": [
                "maxlength"
            ],
            "fieldValidateRulesMaxlength": "35"
        },
        {
            "fieldName": "codice_identificativo_presentazione",
            "fieldType": "String",
            "fieldValidateRules": [
                "maxlength"
            ],
            "fieldValidateRulesMaxlength": "35"
        }
    ],
    "changelogDate": "20170323101349",
    "dto": "no",
    "service": "no",
    "entityTableName": "ins_pos_output",
    "pagination": "no"
}
