{
    "fluentMethods": true,
    "relationships": [
        {
            "relationshipType": "one-to-one",
            "relationshipName": "user",
            "otherEntityName": "user",
            "otherEntityField": "id",
            "ownerSide": true,
            "otherEntityRelationshipName": "lecturer"
        },
        {
            "relationshipType": "one-to-many",
            "relationshipName": "id",
            "otherEntityName": "course",
            "otherEntityRelationshipName": "lecturer"
        }
    ],
    "fields": [
        {
            "fieldName": "name",
            "fieldType": "String"
        },
        {
            "fieldName": "surname",
            "fieldType": "String"
        },
        {
            "fieldName": "email",
            "fieldType": "String"
        },
        {
            "fieldName": "phoneNumber",
            "fieldType": "String"
        },
        {
            "fieldName": "lecturerNumber",
            "fieldType": "Integer"
        }
    ],
    "changelogDate": "20170202090520",
    "javadoc": "The Lecturer entity.",
    "entityTableName": "lecturer",
    "dto": "no",
    "pagination": "no",
    "service": "no"
}