{
    "fluentMethods": true,
    "relationships": [
        {
            "relationshipName": "question",
            "otherEntityName": "question",
            "relationshipType": "many-to-one",
            "otherEntityField": "id"
        },
        {
            "relationshipType": "many-to-one",
            "relationshipName": "user",
            "otherEntityName": "user",
            "otherEntityField": "id"
        },
        {
            "relationshipName": "response",
            "otherEntityName": "response",
            "relationshipType": "many-to-one",
            "otherEntityField": "id"
        }
    ],
    "fields": [],
    "changelogDate": "20170216103230",
    "javadoc": "The UserInformation entity.",
    "entityTableName": "user_information",
    "dto": "no",
    "pagination": "no",
    "service": "no"
}